{
  "status": "ok",
  "total_hits": 10000,
  "page": 1,
  "total_pages": 200,
  "page_size": 50,
  "articles": [
    {
      "title": "Ex-Berater von Joe Biden: 'Rückkehr der Führungsmacht Amerika'",
      "author": "Nicolas Büchse",
      "published_date": "2023-02-28 06:00:00",
      "published_date_precision": "full",
      "link": "https://www.stern.de/politik/ex-berater-von-joe-biden---rueckkehr-der-fuehrungsmacht-amerika--33236002.html",
      "clean_url": "stern.de",
      "excerpt": "Zu Europa spüre Joe Biden eine besondere Verbundenheit, sagt sein früherer Berater Charles Kupchan im Interview.",
      "summary": "28.02.2023, 07:00 4 Min. Charles Kupchan war europapolitischer Berater der Regierung Obama/Biden. Im Interview spricht er über die neue Einigkeit zwischen Washington und Europa und wie der US-Wahlkampf die Aufmerksamkeit für die Ukraine mindern könnte. Professor Kupchan, Sie sind sechsmal mit Joe Biden in die Ukraine gereist. Ja, während seiner Zeit als Vizepräsident. Es bedeutet etwas, wenn ein Vizepräsident so oft ein Land besucht. Wenn er nicht dort war, telefonierte Biden ständig mit ukrainischen Politikern.",
      "rights": "stern.de GmbH",
      "rank": 2633,
      "topic": "news",
      "country": "DE",
      "language": "de",
      "authors": "Nicolas Büchse",
      "media": "https://image.stern.de/33236034/t/AQ/v2/w1440/r1.7778/-/charles-kupchan.jpg",
      "is_opinion": false,
      "twitter_account": "@sternde",
      "_score": 23.60265,
      "_id": "bf0ae1ef21154b773acb6bd4cf85a11c"
    },
    {
      "title": "Charles Kupchan, ex-Mitglied im Nationalen Sicherheitsrat der USA und enger Weggefährte von Präsident Joe Biden, im stern: 'Mit Joe Biden erleben wir eine Wiedergeburt der transatlantischen Einheit'",
      "author": "Braunschweiger Zeitung",
      "published_date": "2023-02-28 07:00:00",
      "published_date_precision": "timezone unknown",
      "link": "https://www.braunschweiger-zeitung.de/wirtschaft/presseportal/article237771573/Charles-Kupchan-ex-Mitglied-im-Nationalen-Sicherheitsrat-der-USA-und-enger-Weggefaehrte-von-Praesident-Joe-Biden-im-stern-Mit-Joe-Biden-erleben-wir-eine-Wiedergeburt-der-transatlantischen-Einheit.html",
      "clean_url": "braunschweiger-zeitung.de",
      "excerpt": "Hamburg (ots) - Charles Kupchan, Professor für Internationale Beziehungen an der renommierten Georgetown Universität in Washington, hat im Gespräch mit dem stern die Verbundenheit von US-Präsident Joe…",
      "summary": "Hamburg (ots) - Charles Kupchan, Professor für Internationale Beziehungen an der renommierten Georgetown Universität in Washington, hat im Gespräch mit dem stern die Verbundenheit von US-Präsident Joe Biden mit Europa und der Ukraine erklärt. Biden sei 'durch und durch Transatlantiker der alten Schule', so Kupchan, der von 2014 bis 2017 als Mitglied des nationalen Sicherheitsrats der USA Barack Obama und dessen damaligen Stellvertreter Joe Biden in europapolitischen Fragen beriet. Während Bidens Zeit als Vize-Präsident begleitete Kupchan ihn auf sechs Reisen in die Ukraine.",
      "rights": "braunschweiger-zeitung.de",
      "rank": 46785,
      "topic": "news",
      "country": "DE",
      "language": "de",
      "authors": "Braunschweig,Braunschweiger Zeitung,Redaktion",
      "media": "http://www.braunschweiger-zeitung.de/bin/src-207531439.jpg",
      "is_opinion": false,
      "twitter_account": "",
      "_score": 23.39115,
      "_id": "7fd8917bca41a0bf20488dd4e2dda3a8"
    },
    {
      "title": "Joe Biden was too busy being in Ukraine to 'avoid dealing with' crises in the US'",
      "author": "Braunschweiger Zeitung",
      "published_date": "2023-02-28 10:52:01",
      "published_date_precision": "full",
      "link": "https://www.skynews.com.au/opinion/chris-kenny/joe-biden-was-too-busy-being-in-ukraine-to-avoid-dealing-with-crises-in-the-us/video/8c678a496796d015d2943ef753feb15b",
      "clean_url": "skynews.com.au",
      "excerpt": "The Daily Telegraph's Tim Blair says President Joe Biden was too busy being in Ukraine to 'avoid dealing with' crises in the US.",
      "summary": "The Daily Telegraph's Tim Blair says President Joe Biden was too busy being in Ukraine to 'avoid dealing with' crises in the US.",
      "rights": "skynews.com.au",
      "rank": 6224,
      "topic": "news",
      "country": "AU",
      "language": "en",
      "authors": "",
      "media": "https://content.api.news/v3/images/bin/0cc8b9596933c2d095a4a09d0bd73831",
      "is_opinion": true,
      "twitter_account": "@SkyNewsAust",
      "_score": 23.376057,
      "_id": "0dfb5db6ee4d8f2a026a7dfa3be96e19"
    },
    {
      "title": "Ex-Berater von Joe Biden: 'Rückkehr der Führungsmacht Amerika'",
      "author": "Nicolas Büchse",
      "published_date": "2023-02-28 06:00:00",
      "published_date_precision": "full",
      "link": "https://www.stern.de/politik/ex-berater-von-joe-biden---rueckkehr-der-fuehrungsmacht-amerika--33236002.html",
      "clean_url": "stern.de",
      "excerpt": "Zu Europa spüre Joe Biden eine besondere Verbundenheit, sagt sein früherer Berater Charles Kupchan im Interview.",
      "summary": "28.02.2023, 07:00 4 Min. Charles Kupchan war europapolitischer Berater der Regierung Obama/Biden. Im Interview spricht er über die neue Einigkeit zwischen Washington und Europa und wie der US-Wahlkampf die Aufmerksamkeit für die Ukraine mindern könnte. Professor Kupchan, Sie sind sechsmal mit Joe Biden in die Ukraine gereist. Ja, während seiner Zeit als Vizepräsident. Es bedeutet etwas, wenn ein Vizepräsident so oft ein Land besucht. Wenn er nicht dort war, telefonierte Biden ständig mit ukrainischen Politikern.",
      "rights": "stern.de GmbH",
      "rank": 2633,
      "topic": "news",
      "country": "DE",
      "language": "de",
      "authors": "Nicolas Büchse",
      "media": "https://fns1.de/g/fb.png",
      "is_opinion": false,
      "twitter_account": "@sternde",
      "_score": 23.60265,
      "_id": "bf0ae1ef21154b773acb6bd4cf85a12d"
    },
    {
      "title": "Charles Kupchan, ex-Mitglied im Nationalen Sicherheitsrat der USA und enger Weggefährte von Präsident Joe Biden, im stern: 'Mit Joe Biden erleben wir eine Wiedergeburt der transatlantischen Einheit'",
      "author": "Braunschweiger Zeitung",
      "published_date": "2023-02-28 07:00:00",
      "published_date_precision": "timezone unknown",
      "link": "https://www.braunschweiger-zeitung.de/wirtschaft/presseportal/article237771573/Charles-Kupchan-ex-Mitglied-im-Nationalen-Sicherheitsrat-der-USA-und-enger-Weggefaehrte-von-Praesident-Joe-Biden-im-stern-Mit-Joe-Biden-erleben-wir-eine-Wiedergeburt-der-transatlantischen-Einheit.html",
      "clean_url": "braunschweiger-zeitung.de",
      "excerpt": "Hamburg (ots) - Charles Kupchan, Professor für Internationale Beziehungen an der renommierten Georgetown Universität in Washington, hat im Gespräch mit dem stern die Verbundenheit von US-Präsident Joe…",
      "summary": "Hamburg (ots) - Charles Kupchan, Professor für Internationale Beziehungen an der renommierten Georgetown Universität in Washington, hat im Gespräch mit dem stern die Verbundenheit von US-Präsident Joe Biden mit Europa und der Ukraine erklärt. Biden sei 'durch und durch Transatlantiker der alten Schule', so Kupchan, der von 2014 bis 2017 als Mitglied des nationalen Sicherheitsrats der USA Barack Obama und dessen damaligen Stellvertreter Joe Biden in europapolitischen Fragen beriet. Während Bidens Zeit als Vize-Präsident begleitete Kupchan ihn auf sechs Reisen in die Ukraine.",
      "rights": "braunschweiger-zeitung.de",
      "rank": 46785,
      "topic": "news",
      "country": "DE",
      "language": "de",
      "authors": "Braunschweig,Braunschweiger Zeitung,Redaktion",
      "media": "https://i.headtopics.com/images/2023/2/28/skynewsaust/joe-biden-was-too-busy-being-in-ukraine-to-avoid-d-joe-biden-was-too-busy-being-in-ukraine-to-avoid-d-1630522931972546563.webp",
      "is_opinion": false,
      "twitter_account": "",
      "_score": 23.39115,
      "_id": "7fd8917bca41a0bf20488dd4e2d33333"
    },
    {
      "title": "Joe Biden was too busy being in Ukraine to 'avoid dealing with' crises in the US'",
      "author": "Nicolas Büchse",
      "published_date": "2023-02-28 10:52:01",
      "published_date_precision": "full",
      "link": "https://www.skynews.com.au/opinion/chris-kenny/joe-biden-was-too-busy-being-in-ukraine-to-avoid-dealing-with-crises-in-the-us/video/8c678a496796d015d2943ef753feb15b",
      "clean_url": "skynews.com.au",
      "excerpt": "The Daily Telegraph's Tim Blair says President Joe Biden was too busy being in Ukraine to 'avoid dealing with' crises in the US.",
      "summary": "The Daily Telegraph's Tim Blair says President Joe Biden was too busy being in Ukraine to 'avoid dealing with' crises in the US.",
      "rights": "skynews.com.au",
      "rank": 6224,
      "topic": "news",
      "country": "AU",
      "language": "en",
      "authors": "",
      "media": "https://www.extremnews.com/images/max_image_view-1b36dcd7bf5343d799cd10dd56c6179c.jpeg",
      "is_opinion": true,
      "twitter_account": "@SkyNewsAust",
      "_score": 23.376057,
      "_id": "0dfb5db6ee4d8f2a026a7dfa3bbbbbbb"
    },
    {
      "title": "Ex-Berater von Joe Biden: 'Rückkehr der Führungsmacht Amerika'",
      "author": "Nicolas Büchse",
      "published_date": "2023-02-28 06:00:00",
      "published_date_precision": "full",
      "link": "https://www.stern.de/politik/ex-berater-von-joe-biden---rueckkehr-der-fuehrungsmacht-amerika--33236002.html",
      "clean_url": "stern.de",
      "excerpt": "Zu Europa spüre Joe Biden eine besondere Verbundenheit, sagt sein früherer Berater Charles Kupchan im Interview.",
      "summary": "28.02.2023, 07:00 4 Min. Charles Kupchan war europapolitischer Berater der Regierung Obama/Biden. Im Interview spricht er über die neue Einigkeit zwischen Washington und Europa und wie der US-Wahlkampf die Aufmerksamkeit für die Ukraine mindern könnte. Professor Kupchan, Sie sind sechsmal mit Joe Biden in die Ukraine gereist. Ja, während seiner Zeit als Vizepräsident. Es bedeutet etwas, wenn ein Vizepräsident so oft ein Land besucht. Wenn er nicht dort war, telefonierte Biden ständig mit ukrainischen Politikern.",
      "rights": "stern.de GmbH",
      "rank": 2633,
      "topic": "news",
      "country": "DE",
      "language": "de",
      "authors": "Nicolas Büchse",
      "media": "https://www.thegatewaypundit.com/wp-content/uploads/Biden-and-Xi-1.jpg",
      "is_opinion": false,
      "twitter_account": "@sternde",
      "_score": 23.60265,
      "_id": "bf0ae1ef21154b773acb6bd4cf123456"
    },
    {
      "title": "Charles Kupchan, ex-Mitglied im Nationalen Sicherheitsrat der USA und enger Weggefährte von Präsident Joe Biden, im stern: 'Mit Joe Biden erleben wir eine Wiedergeburt der transatlantischen Einheit'",
      "author": "Braunschweiger Zeitung",
      "published_date": "2023-02-28 07:00:00",
      "published_date_precision": "timezone unknown",
      "link": "https://www.braunschweiger-zeitung.de/wirtschaft/presseportal/article237771573/Charles-Kupchan-ex-Mitglied-im-Nationalen-Sicherheitsrat-der-USA-und-enger-Weggefaehrte-von-Praesident-Joe-Biden-im-stern-Mit-Joe-Biden-erleben-wir-eine-Wiedergeburt-der-transatlantischen-Einheit.html",
      "clean_url": "braunschweiger-zeitung.de",
      "excerpt": "Hamburg (ots) - Charles Kupchan, Professor für Internationale Beziehungen an der renommierten Georgetown Universität in Washington, hat im Gespräch mit dem stern die Verbundenheit von US-Präsident Joe…",
      "summary": "Hamburg (ots) - Charles Kupchan, Professor für Internationale Beziehungen an der renommierten Georgetown Universität in Washington, hat im Gespräch mit dem stern die Verbundenheit von US-Präsident Joe Biden mit Europa und der Ukraine erklärt. Biden sei 'durch und durch Transatlantiker der alten Schule', so Kupchan, der von 2014 bis 2017 als Mitglied des nationalen Sicherheitsrats der USA Barack Obama und dessen damaligen Stellvertreter Joe Biden in europapolitischen Fragen beriet. Während Bidens Zeit als Vize-Präsident begleitete Kupchan ihn auf sechs Reisen in die Ukraine.",
      "rights": "braunschweiger-zeitung.de",
      "rank": 46785,
      "topic": "news",
      "country": "DE",
      "language": "de",
      "authors": "Braunschweig,Braunschweiger Zeitung,Redaktion",
      "media": "https://express-images.franklymedia.com/asset/express-cms-admin-logo.png",
      "is_opinion": false,
      "twitter_account": "",
      "_score": 23.39115,
      "_id": "7fd8917bca41a0bf20488dd4e0000000"
    },
    {
      "title": "Joe Biden was too busy being in Ukraine to 'avoid dealing with' crises in the US'",
      "author": "Braunschweiger Zeitung",
      "published_date": "2023-02-28 10:52:01",
      "published_date_precision": "full",
      "link": "https://www.skynews.com.au/opinion/chris-kenny/joe-biden-was-too-busy-being-in-ukraine-to-avoid-dealing-with-crises-in-the-us/video/8c678a496796d015d2943ef753feb15b",
      "clean_url": "skynews.com.au",
      "excerpt": "The Daily Telegraph's Tim Blair says President Joe Biden was too busy being in Ukraine to 'avoid dealing with' crises in the US.",
      "summary": "The Daily Telegraph's Tim Blair says President Joe Biden was too busy being in Ukraine to 'avoid dealing with' crises in the US.",
      "rights": "skynews.com.au",
      "rank": 6224,
      "topic": "news",
      "country": "AU",
      "language": "en",
      "authors": "",
      "media": "https://www.nw.de/_em_daten/202397367/_/1xNW1QbnBDWFZKbkpSQXQ3OWptY1VwdTI0ZkFUNVVLa2cxT0tLb2RtY1NxeVljbndjbDlZQnpWd3lpaHNDNWp0R05heDA4VWszdXlKSVE5MW11TDBWMWhvN0kxRHFQazNuTkRoZkJONjFpd2c9/230227-1853-408294080.jpg",
      "is_opinion": true,
      "twitter_account": "@SkyNewsAust",
      "_score": 23.376057,
      "_id": "0dfb5db6ee4d8f2a026a7dfa31111111"
    }
  ]
}
